%YAML 1.1
%TAG !u! tag:unity3d.com,2011:
--- !u!114 &11400000
MonoBehaviour:
  m_ObjectHideFlags: 0
  m_CorrespondingSourceObject: {fileID: 0}
  m_PrefabInstance: {fileID: 0}
  m_PrefabAsset: {fileID: 0}
  m_GameObject: {fileID: 0}
  m_Enabled: 1
  m_EditorHideFlags: 0
  m_Script: {fileID: 11500000, guid: 053a04396d18df54a8450438673fba49, type: 3}
  m_Name: "\u6700\u5F37\u306E\u6280"
  m_EditorClassIdentifier: 
  SkillName: "\u6700\u5F37\u306E\u6280"
  skillType: 2
  SkillDamage: 300
  MaxPosition: 4
  CoolTime: 3
  SpecialSkillFlg: 0
