%YAML 1.1
%TAG !u! tag:unity3d.com,2011:
--- !u!114 &11400000
MonoBehaviour:
  m_ObjectHideFlags: 0
  m_CorrespondingSourceObject: {fileID: 0}
  m_PrefabInstance: {fileID: 0}
  m_PrefabAsset: {fileID: 0}
  m_GameObject: {fileID: 0}
  m_Enabled: 1
  m_EditorHideFlags: 0
  m_Script: {fileID: 11500000, guid: 10e0804fbefbf7b43a49976dcd7f60a6, type: 3}
  m_Name: Debug2
  m_EditorClassIdentifier: 
  CharacterName: Debug 2
  CharaSprite: {fileID: 21300000, guid: d5d3e2c1758ea684d942b2dee7289b42, type: 3}
  CharaObj: {fileID: 6924336310577481526, guid: c9e8bfc37d3537541af66499dcad4409, type: 3}
  CharaObj_anim: {fileID: 8116796406209535544, guid: 43ee391496f13a3499cd5db7c6e36a1a, type: 3}
  Level: 1
  HP: 1000
  STR: 1
  INT: 1
  DEF: 1
  RES: 1
  AGI: 1
  Character_Position: 0
  Skill_1: {fileID: 11400000, guid: d5deedf998268b64f9fa1bf7f64c0da5, type: 2}
  SpecialSkill: {fileID: 11400000, guid: 37b409135f843154ba144a6292e86280, type: 2}
