%YAML 1.1
%TAG !u! tag:unity3d.com,2011:
--- !u!114 &11400000
MonoBehaviour:
  m_ObjectHideFlags: 0
  m_CorrespondingSourceObject: {fileID: 0}
  m_PrefabInstance: {fileID: 0}
  m_PrefabAsset: {fileID: 0}
  m_GameObject: {fileID: 0}
  m_Enabled: 1
  m_EditorHideFlags: 0
  m_Script: {fileID: 11500000, guid: 053a04396d18df54a8450438673fba49, type: 3}
  m_Name: "\u30E1\u30E9\u30BE\u30FC\u30DE"
  m_EditorClassIdentifier: 
  SkillName: "\u30E1\u30E9\u30BE\u30FC\u30DE"
  skillType: 1
  SkillDamage: 200
  MaxPosition: 1
  CoolTime: 40
  SpecialSkillFlg: 1
  skillSprite: {fileID: 21300000, guid: 39628686bcd6650449a342e08319ecf8, type: 3}
