%YAML 1.1
%TAG !u! tag:unity3d.com,2011:
--- !u!114 &11400000
MonoBehaviour:
  m_ObjectHideFlags: 0
  m_CorrespondingSourceObject: {fileID: 0}
  m_PrefabInstance: {fileID: 0}
  m_PrefabAsset: {fileID: 0}
  m_GameObject: {fileID: 0}
  m_Enabled: 1
  m_EditorHideFlags: 0
  m_Script: {fileID: 11500000, guid: 7ff7e8a74a6db824b9444dadaa605256, type: 3}
  m_Name: Text_girl_evening
  m_EditorClassIdentifier: 
  serifText: "\u4ECA\u65E5\u306F\u75B2\u308C\u305F\u306D\n\u3086\u3063\u304F\u308A\u3084\u3059\u3082\u3046\uFF01\n\n...\u307E\u305F\u660E\u65E5\u306D\uFF01"
