%YAML 1.1
%TAG !u! tag:unity3d.com,2011:
--- !u!114 &11400000
MonoBehaviour:
  m_ObjectHideFlags: 0
  m_CorrespondingSourceObject: {fileID: 0}
  m_PrefabInstance: {fileID: 0}
  m_PrefabAsset: {fileID: 0}
  m_GameObject: {fileID: 0}
  m_Enabled: 1
  m_EditorHideFlags: 0
  m_Script: {fileID: 11500000, guid: 7bdbfc4a3a9146a4a82482e119d361ae, type: 3}
  m_Name: FireEye
  m_EditorClassIdentifier: 
  EnemyName: "\u30D5\u30A1\u30A4\u30E4\u30FC\u30FB\u30A2\u30A4"
  EnemySprite: {fileID: 21300000, guid: 24a3ca363439ef446b32854050a6ccef, type: 3}
  EnemyObj: {fileID: 694475945876285466, guid: 931934cbaef2f9e459cac2cc7ad89019, type: 3}
  Level: 2
  Hp: 300
  Str: 20
  Def: 40
  Skill_1: {fileID: 11400000, guid: 9a3907cfe6fab6b40851dce441ede8af, type: 2}
  Skill_2: {fileID: 11400000, guid: 6e9bf317210f9f84aabc2e94b5fbb8e0, type: 2}
  EnemyIntroduction: "\u708E\u306E\u76EE\u7389\u3002\n\u5358\u4F53\u653B\u6483\u306B\u52A0\u3048\u3001\n\u5F37\u529B\u306A\u7BC4\u56F2\u653B\u6483\u3092\n\u4ED5\u639B\u3051\u3066\u304F\u308B\u3002"
  enemyExp: 2
