%YAML 1.1
%TAG !u! tag:unity3d.com,2011:
--- !u!78 &1
TagManager:
  serializedVersion: 2
  tags:
  - Character_forward
  - Character_middle
  - Character_back
  - Character
  layers:
  - Default
  - TransparentFX
  - Ignore Raycast
  - 
  - Water
  - UI
  - 
  - 
  - 
  - 
  - 
  - 
  - 
  - 
  - 
  - 
  - 
  - 
  - 
  - 
  - 
  - 
  - 
  - 
  - 
  - 
  - 
  - 
  - 
  - 
  - 
  - 
  m_SortingLayers:
  - name: BackGround
    uniqueID: 658222455
    locked: 0
  - name: Default
    uniqueID: 0
    locked: 0
  - name: Character
    uniqueID: 3177260877
    locked: 0
  - name: Menu
    uniqueID: 2172924065
    locked: 0
  - name: MostFront
    uniqueID: 2435504085
    locked: 0
  - name: HowToPlay
    uniqueID: 3852922869
    locked: 0
